example_id                                                        | status | run_time      |
----------------------------------------------------------------- | ------ | ------------- |
./spec/controllers/api/sessions_controller_spec.rb[1:1:1]         | passed | 0.185 seconds |
./spec/controllers/api/sessions_controller_spec.rb[1:1:2]         | passed | 0.099 seconds |
./spec/controllers/api/tv_show_statistics_controller_spec.rb[1:1] | passed | 1.5 seconds   |
./spec/controllers/api/tv_show_statistics_controller_spec.rb[1:2] | passed | 2.86 seconds  |
./spec/controllers/api/tv_show_statistics_controller_spec.rb[1:3] | passed | 1.93 seconds  |
./spec/controllers/api/tv_shows_controller_spec.rb[1:1:1]         | passed | 1.11 seconds  |
./spec/controllers/api/tv_shows_controller_spec.rb[1:1:2]         | passed | 1.4 seconds   |
./spec/controllers/api/tv_shows_controller_spec.rb[1:1:3]         | passed | 1.08 seconds  |
./spec/controllers/api/tv_shows_controller_spec.rb[1:1:4]         | passed | 1.25 seconds  |
./spec/controllers/api/tv_shows_controller_spec.rb[1:1:5]         | passed | 1.1 seconds   |
./spec/controllers/api/tv_shows_controller_spec.rb[1:1:6]         | passed | 1.48 seconds  |
./spec/controllers/api/tv_shows_controller_spec.rb[1:1:7]         | passed | 1.1 seconds   |
./spec/models/tv_show_spec.rb[1:1:1]                              | passed | 0.021 seconds |
./spec/models/tv_show_spec.rb[1:2:1]                              | passed | 0.055 seconds |
./spec/models/tv_show_spec.rb[1:2:2]                              | passed | 0.228 seconds |
./spec/models/tv_show_spec.rb[1:2:3]                              | passed | 0.046 seconds |
./spec/models/tv_show_spec.rb[1:2:4]                              | passed | 0.049 seconds |
./spec/models/tv_show_spec.rb[1:2:5]                              | passed | 0.061 seconds |
./spec/models/tv_show_spec.rb[1:2:6]                              | passed | 0.09 seconds  |
./spec/models/tv_show_statistic_spec.rb[1:1:1]                    | passed | 0.006 seconds |
./spec/models/tv_show_statistic_spec.rb[1:2:1]                    | passed | 0.028 seconds |
./spec/models/tv_show_statistic_spec.rb[1:2:2]                    | passed | 0.034 seconds |
./spec/models/user_spec.rb[1:1:1]                                 | passed | 0.006 seconds |
./spec/models/user_spec.rb[1:2:1]                                 | passed | 0.071 seconds |
./spec/models/user_spec.rb[1:2:2]                                 | passed | 0.049 seconds |
./spec/models/user_spec.rb[1:2:3]                                 | passed | 0.062 seconds |
./spec/models/user_spec.rb[1:2:4]                                 | passed | 0.071 seconds |
./spec/models/user_spec.rb[1:2:5]                                 | passed | 0.086 seconds |
./spec/models/user_spec.rb[1:2:6:1]                               | passed | 0.118 seconds |
./spec/models/user_spec.rb[1:2:6:2]                               | passed | 0.059 seconds |
./spec/services/tv_show_data_retrieve_service_spec.rb[1:1:1]      | passed | 2.1 seconds   |
./spec/services/tv_show_data_retrieve_service_spec.rb[1:1:2]      | passed | 0.701 seconds |
